node_id,longitude,latitude
154855832,-82.370929,38.410111
154757494,-82.357919,38.393237
154757428,-82.362674,38.399516
198147811,-82.45465,38.429286
198147800,-82.519982,38.41098
198147796,-82.46023,38.428707
154832952,-82.3528165,38.4093874
154832948,-82.3533702,38.4093066
154832910,-82.3658617,38.4057039
198090723,-82.496521,38.430135
198178958,-82.46178,38.424678
198139567,-82.477499,38.431809
198066788,-82.516914,38.409838
3388797938,-82.5260409,38.392267
3388797717,-82.4783127,38.387071
154756433,-82.348708,38.40303
3357285824,-82.5403506,38.410351
3357285802,-82.5335721,38.4115447
3357285668,-82.5459023,38.4092058
2881165147,-82.4506304,38.4282842
154773142,-82.349,38.409708
198080439,-82.513551,38.412352
154773049,-82.364333,38.409696
198129995,-82.473932,38.425927
154816730,-82.364519,38.410101
198147530,-82.527643,38.407788
3036439734,-82.5083093,38.3870514
198067916,-82.503614,38.413538
198067729,-82.492022,38.421202
3019210028,-82.4535171,38.4305781
198149430,-82.424968,38.433965
154757669,-82.361846,38.39776
2223781097,-82.4602979,38.4302008
198131723,-82.454126,38.433066
154795499,-82.341251,38.407049
198102775,-82.4587818,38.4312724
198102767,-82.459059,38.430931
198140823,-82.38558,38.438788
1556102929,-82.3542226,38.4225913
1556102892,-82.3544781,38.4221779
1556102890,-82.3539285,38.4220943
198091166,-82.521638,38.410947
1556102880,-82.3545052,38.4214437
154855834,-82.369412,38.410479
198132549,-82.433034,38.432356
1726119599,-82.3776573,38.3975035
198074253,-82.520728,38.411591
1726119585,-82.3762231,38.3970432
1726119577,-82.3782924,38.3968677
154766839,-82.34449,38.413129
1726119487,-82.3794189,38.3923187
154766804,-82.349941,38.41072
198123257,-82.470475,38.425839
198123255,-82.471089,38.425695
154766776,-82.346101,38.41219
198123248,-82.520612,38.412941
154766768,-82.345838,38.413353
1726119420,-82.408391,38.3876944
1726119407,-82.3789607,38.3872746
1726119375,-82.4041843,38.385942
198156390,-82.509916,38.415247
638967938,-82.4880182,38.4192977
154802255,-82.362955,38.404381
154802253,-82.361998,38.404917
1556219103,-82.3520116,38.4058608
1312405654,-82.461706,38.4291747
1438425834,-82.4570654,38.385043
1432026331,-82.546945,38.3920419
1242813346,-82.3027531,38.4611231
3388797861,-82.4849184,38.3902428
3388797842,-82.4775524,38.3898246
198054963,-82.517773,38.409675
198102514,-82.477879,38.421679
198103995,-82.511938,38.415448
198103988,-82.511063,38.415532
198103981,-82.510057,38.415662
198054731,-82.464648,38.425893
198110672,-82.445044,38.428793
154770069,-82.350213,38.413343
156145088,-82.5118185,38.3888559
638977896,-82.4556167,38.4339941
198088757,-82.46634,38.427556
198100220,-82.515046,38.432086
154817346,-82.359722,38.403164
154816746,-82.369592,38.409233
154816706,-82.360491,38.412049
198074582,-82.511029,38.411345
198123698,-82.4600122,38.4300791
3019210029,-82.4533695,38.4306243
3019210027,-82.4534472,38.4303431
198074355,-82.537758,38.407723
198120092,-82.504899,38.414827
198103385,-82.462245,38.427929
154796107,-82.361671,38.434202
154845448,-82.349433,38.405607
198080455,-82.515017,38.410192
198086243,-82.465339,38.435543
154845436,-82.349398,38.40075
431528502,-82.4904829,38.4233354
198085968,-82.517771,38.420942
198091169,-82.520767,38.411113
198120008,-82.469709,38.425406
198120004,-82.467346,38.425878
154812685,-82.354747,38.410967
198120001,-82.465874,38.426133
198119999,-82.463878,38.42649
154812674,-82.352971,38.412161
156116502,-82.5093482,38.3915868
198145725,-82.46986,38.424333
154847830,-82.411804,38.381645
154779669,-82.3583181,38.4338719
154779650,-82.364721,38.432715
154779652,-82.3631495,38.4330699
198153939,-82.48919,38.4216127
198153918,-82.4881139,38.4194937
198155076,-82.437247,38.436405
198155070,-82.437342,38.43543
198155066,-82.438654,38.434858
198055606,-82.504755,38.425061
198148978,-82.493495,38.432714
198147985,-82.466192,38.435448
198185059,-82.498769,38.421132
198173072,-82.466644,38.42522
198173069,-82.466517,38.424676
154768247,-82.350279,38.41334
198169990,-82.523558,38.407894
198169957,-82.461699,38.425537
198169950,-82.460593,38.425763
198169294,-82.525345,38.407468
198168463,-82.470763,38.424382
198166358,-82.529248,38.421457
198165378,-82.510711,38.422813
198165270,-82.4524793,38.4315492
198165333,-82.494662,38.421183
198165107,-82.452754,38.433095
198163519,-82.511688,38.411209
198163515,-82.516502,38.409558
198187253,-82.508979,38.411894
198182778,-82.516044,38.414722
198177666,-82.436969,38.433432
198171232,-82.510695,38.416062
198165142,-82.450337,38.430296
198163552,-82.47343,38.435682
198163524,-82.520712,38.409015
198162105,-82.514752,38.420173
198161853,-82.483061,38.436338
154757433,-82.361152,38.399844
198155926,-82.505363,38.417284
198056215,-82.4683202,38.4278417
198152812,-82.519005,38.411802
198148533,-82.514155,38.439257
156145033,-82.5148905,38.393245
198148427,-82.515761,38.427411
198148263,-82.454997,38.426463
156167764,-82.4855656,38.3886275
198123791,-82.4709334,38.4275995
198121277,-82.3885098,38.4395061
198123729,-82.4730833,38.4268784
198147509,-82.466639,38.434011
198146647,-82.464034,38.427179
198146460,-82.510979,38.424353
198143843,-82.47153,38.426674
198143730,-82.526175,38.424416
198143729,-82.526125,38.424296
198143728,-82.523276,38.42172
198137431,-82.45639,38.430659
198137342,-82.451328,38.430547
198137036,-82.503626,38.415182
198134234,-82.511908,38.413947
198133944,-82.468149,38.435066
198133550,-82.490314,38.43312
198133536,-82.493148,38.431806
198133028,-82.45258,38.430516
198132881,-82.47857,38.421786
198132880,-82.478462,38.421475
198132580,-82.44862,38.428206
198132283,-82.497103,38.434204
198130262,-82.482165,38.42097
198130245,-82.429589,38.462386
198125022,-82.463416,38.425224
198125013,-82.462968,38.428192
198123965,-82.381816,38.436391
198123819,-82.488359,38.423775
638977897,-82.4521762,38.4272095
198123752,-82.488281,38.423584
198074568,-82.47591,38.425346
198074558,-82.475806,38.424128
198148063,-82.454601,38.433271
198074313,-82.456207,38.428074
198074311,-82.455621,38.428192
198074309,-82.454126,38.4285
198123466,-82.490351,38.432391
198122709,-82.479131,38.422185
198121583,-82.514602,38.414226
198121530,-82.440504,38.437153
198121486,-82.44846,38.43126
198121333,-82.5099,38.416894
198120984,-82.456354,38.431111
198169868,-82.474901,38.425894
154764208,-82.36368,38.408706
198120197,-82.530928,38.405925
198123756,-82.490115,38.4230519
198147784,-82.518756,38.420196
198147779,-82.51872,38.421008
198145065,-82.480909,38.421153
198143855,-82.502692,38.414507
198143733,-82.529279,38.426909
198142676,-82.475257,38.422322
198141282,-82.509633,38.414345
198141226,-82.510908,38.426299
198139086,-82.511194,38.415971
198139081,-82.512401,38.415785
198137604,-82.512409,38.417147
198137245,-82.515765,38.42661
198136424,-82.50984,38.416259
198136426,-82.50923,38.416311
198134305,-82.513093,38.420097
198134303,-82.513287,38.419891
198133915,-82.520822,38.410596
198133907,-82.520543,38.413877
198133885,-82.527265,38.406768
198133689,-82.426811,38.433163
154777211,-82.449604,38.388595
198133670,-82.426218,38.434938
154845236,-82.468969,38.385415
198054245,-82.534202,38.416672
198132648,-82.504944,38.414241
198131722,-82.454392,38.432834
198130492,-82.500792,38.414818
156150123,-82.5127273,38.3866269
198130065,-82.43443,38.438565
198130004,-82.473605,38.425017
198129999,-82.473633,38.425891
198127733,-82.504166,38.446203
198123961,-82.382472,38.436392
198074578,-82.511487,38.412851
198074307,-82.452629,38.4288261
198123267,-82.467506,38.426376
198121794,-82.465562,38.424832
198121585,-82.51465,38.412881
198111711,-82.5336531,38.4115408
198109447,-82.5220308,38.4138952
198118523,-82.520647,38.42118
198116972,-82.478325,38.424128
198116968,-82.476791,38.424393
198115291,-82.455026,38.431819
198089597,-82.441619,38.432853
198088233,-82.52066,38.412455
198137418,-82.456633,38.43156
198088232,-82.518873,38.412394
198088124,-82.433794,38.432144
198137308,-82.489475,38.42397
198087098,-82.516339,38.411587
156155572,-82.5111894,38.3912619
154812802,-82.3799897,38.38969
198120118,-82.519013,38.410494
198120111,-82.518404,38.410846
198120096,-82.506216,38.4144
198120055,-82.502589,38.418961
198120017,-82.473653,38.424044
198113823,-82.465445,38.430978
198113802,-82.468976,38.432567
198113367,-82.530285,38.409393
198113360,-82.526489,38.410312
198112597,-82.460355,38.426718
198112567,-82.455328,38.427323
198112201,-82.440106,38.434718
198112187,-82.425841,38.434053
198112186,-82.425099,38.434297
198112180,-82.535625,38.408544
198112172,-82.533201,38.408667
198112098,-82.521817,38.40989
198160887,-82.51081,38.425791
198111701,-82.534366,38.410275
198111699,-82.534377,38.410118
198110609,-82.508053,38.412156
198110165,-82.508783,38.413584
198109878,-82.491122,38.447186
198109282,-82.512343,38.41078
198109124,-82.461426,38.427769
198108506,-82.510374,38.431328
198103487,-82.384516,38.435619
198108025,-82.469852,38.425955
198058867,-82.49503,38.431154
198108024,-82.470107,38.426511
198105319,-82.520858,38.410142
198103865,-82.512188,38.41217
198103863,-82.512334,38.412642
198103384,-82.46226,38.427592
198103005,-82.43109,38.432931
198102998,-82.425293,38.434624
198102996,-82.424758,38.434763
198102894,-82.45534,38.433043
198102837,-82.384339,38.438577
198102776,-82.458548,38.431584
198102494,-82.510445,38.425738
198102490,-82.524382,38.427573
198102383,-82.492677,38.428544
198102379,-82.49127,38.428978
198102365,-82.446329,38.43592
198101667,-82.50902,38.412398
198100120,-82.519409,38.413416
198099523,-82.529915,38.408419
198098004,-82.532038,38.408822
198096878,-82.458279,38.428962
198096876,-82.458269,38.429649
198095289,-82.499997,38.41385
198095209,-82.453179,38.432025
946852808,-82.348432,38.4131386
154786972,-82.369198,38.405628
198120090,-82.504602,38.414937
154786966,-82.369001,38.406146
154786933,-82.370738,38.408615
198093560,-82.507915,38.41386
198093543,-82.466711,38.424178
198093237,-82.513399,38.412389
198092827,-82.500673,38.414589
198092824,-82.50098,38.414557
198109095,-82.5001806,38.4196104
198109078,-82.4999818,38.4179272
198120094,-82.505035,38.414778
198120115,-82.518704,38.41068
198120007,-82.469606,38.42543
198118527,-82.523058,38.419109
198116604,-82.509678,38.416288
198115265,-82.457721,38.431278
198114248,-82.529161,38.406339
198114246,-82.529504,38.407342
154757765,-82.362018,38.396588
198113363,-82.528359,38.409869
198112563,-82.457139,38.426946
198112589,-82.457289,38.427394
198112188,-82.438484,38.436898
198110694,-82.441143,38.430175
198110607,-82.508575,38.411999
198109089,-82.495652,38.418045
198105437,-82.518866,38.412855
198103000,-82.426021,38.434427
198102992,-82.42211,38.435488
154795574,-82.349755,38.40681
198102870,-82.452642,38.429024
198102483,-82.521108,38.428627
198102375,-82.447732,38.435896
198102335,-82.50318,38.416273
198101663,-82.509374,38.413398
198097987,-82.531194,38.406903
198097994,-82.531689,38.408012
198097992,-82.531478,38.40749
198145062,-82.480778,38.42117
198095868,-82.501317,38.415227
198095830,-82.431901,38.436292
198095711,-82.424336,38.445155
198095203,-82.453476,38.431808
154786968,-82.369136,38.40589
198093556,-82.5074,38.412299
198093526,-82.467895,38.425777
198092254,-82.556178,38.40534
198091474,-82.451485,38.428137
198090714,-82.493627,38.430627
198090514,-82.471535,38.425572
198089826,-82.460905,38.425725
198089823,-82.460799,38.425459
198089664,-82.474929,38.423773
198089660,-82.474538,38.422471
198089556,-82.481746,38.423627
198088755,-82.46606,38.427206
198088751,-82.465814,38.426667
198088635,-82.472824,38.432145
198088637,-82.472158,38.431606
198088235,-82.522033,38.412507
198088231,-82.518647,38.41218
198137304,-82.488463,38.424019
198088108,-82.431078,38.432484
198087419,-82.453267,38.426648
198087414,-82.45384,38.427648
198087415,-82.453702,38.427231
198087111,-82.516418,38.410091
198086774,-82.463224,38.434236
198086535,-82.488549,38.48104
198069848,-82.3869323,38.4390201
156167918,-82.4958643,38.3882358
156167886,-82.4931961,38.3901769
198148067,-82.453648,38.432867
156167727,-82.4857597,38.390102
156167702,-82.4857798,38.3921444
198054217,-82.531295,38.4121877
198111040,-82.465552,38.43333
198111035,-82.465663,38.433548
198081524,-82.382625,38.436387
198081522,-82.384511,38.436517
198081520,-82.385781,38.43661
198081502,-82.491927,38.429955
198078179,-82.454992,38.433404
198078090,-82.459176,38.426982
198078086,-82.458868,38.426136
198102511,-82.478122,38.422335
198077918,-82.465569,38.434777
198077824,-82.474861,38.423925
198077753,-82.505556,38.412879
198075541,-82.490509,38.423954
198074954,-82.472163,38.424554
198074555,-82.475811,38.423616
198074333,-82.462923,38.426659
198074327,-82.461747,38.426896
198074325,-82.460401,38.427181
198074321,-82.45931,38.427407
198073060,-82.464132,38.425063
198073058,-82.464082,38.424636
198072695,-82.494134,38.431899
198072694,-82.493734,38.432059
198072450,-82.471037,38.437092
198069932,-82.429361,38.44077
198068602,-82.501879,38.419211
198068525,-82.504748,38.430288
198068408,-82.504068,38.422344
198068061,-82.462509,38.424841
198068053,-82.461762,38.425829
198067831,-82.480793,38.42157
198067829,-82.480133,38.421662
198067810,-82.480869,38.423285
198067808,-82.481475,38.423229
198067728,-82.492086,38.421316
198067723,-82.488696,38.4205
198067590,-82.381761,38.437371
198067583,-82.533916,38.410888
198067580,-82.534312,38.410888
198067575,-82.535453,38.410802
198067234,-82.502819,38.41666
198066524,-82.512179,38.41268
198064002,-82.4851,38.421432
198063946,-82.518228,38.40908
198062725,-82.521726,38.428715
198062488,-82.500933,38.418736
198062484,-82.501139,38.419384
154757405,-82.359808,38.387108
198059832,-82.493142,38.4211
198058986,-82.512653,38.426562
198132646,-82.504302,38.412995
198058853,-82.493605,38.43186
198058690,-82.379313,38.43936
198058613,-82.51805,38.43017
198057375,-82.480443,38.420828
198056539,-82.504375,38.412546
198056536,-82.503837,38.412705
198056528,-82.514309,38.410177
198056524,-82.504477,38.412739
198056523,-82.504157,38.412836
198056474,-82.458794,38.429904
198056470,-82.458907,38.42959
198154519,-82.5037847,38.4196821
198055239,-82.501605,38.41348
198055235,-82.502141,38.415109
198054812,-82.455459,38.427772
198054807,-82.45275,38.428308
198054780,-82.46418,38.426437
198054686,-82.506879,38.413273
198054464,-82.461752,38.428078
198054462,-82.461391,38.428059
198054392,-82.504048,38.413417
198054376,-82.529138,38.432951
198054236,-82.53312,38.415149
198062002,-82.4576145,38.4344841
198160372,-82.512463,38.419488
198061941,-82.4572731,38.4339643
198069106,-82.4573462,38.4343877
198084545,-82.521851,38.409332
198084540,-82.521388,38.408208
198081503,-82.493148,38.429503
198080113,-82.511085,38.427348
198078181,-82.454816,38.433538
198078088,-82.459029,38.426536
198077871,-82.50459,38.413411
198077822,-82.474821,38.423793
198075555,-82.490069,38.425679
198074969,-82.47302,38.422924
198074331,-82.462722,38.426703
946853001,-82.3481788,38.4130985
198068529,-82.503189,38.430262
198068412,-82.50272,38.422854
198166290,-82.514604,38.420643
198067918,-82.50399,38.413912
198067814,-82.480135,38.423353
198067721,-82.489414,38.421567
198067701,-82.493628,38.422066
198066522,-82.512248,38.412932
198064000,-82.485104,38.422223
198062722,-82.523016,38.427978
198061645,-82.517177,38.410639
198058982,-82.512833,38.426263
198058855,-82.493958,38.431762
198057374,-82.480478,38.421209
198057126,-82.48679,38.423854
198056131,-82.467545,38.424495
198054972,-82.484199,38.422333
198103448,-82.533055,38.407788
198084808,-82.510362,38.413111
198105333,-82.519016,38.411057
156171784,-82.515542,38.387906
156167955,-82.4913478,38.3914199
156165755,-82.513289,38.388538
156164083,-82.517878,38.391419
156164063,-82.518854,38.393234
154779656,-82.3615049,38.4332955
198081154,-82.474175,38.422553
198104146,-82.510531,38.413699
198054960,-82.517638,38.410639
198054776,-82.464303,38.426048
198153242,-82.493271,38.431207
156161850,-82.4859093,38.3916826
156155593,-82.511153,38.3889827
156145062,-82.5119668,38.3910071
156138487,-82.512392,38.3883289
156129850,-82.5114485,38.3912559
156116562,-82.5084508,38.392641
156116548,-82.5075008,38.392387
156116537,-82.5085468,38.391749
156116533,-82.5091956,38.391604
156116512,-82.509707,38.3925449
198060588,-82.452292,38.428419
154875963,-82.3494301,38.4105175
198054790,-82.514227,38.412633
198187430,-82.469946,38.435313
156155686,-82.515174,38.388946
198101544,-82.466891,38.424314
198148363,-82.38576,38.435623
156140448,-82.4858129,38.3931345
156138464,-82.5117545,38.3886959
156138467,-82.512622,38.38852
156136140,-82.502351,38.387058
198089562,-82.47928,38.423896
198089558,-82.480948,38.423717
198060584,-82.451248,38.428668
156128656,-82.483934,38.394041
156123880,-82.511445,38.386945
156123686,-82.514785,38.390319
156116221,-82.480133,38.389618
156110456,-82.513542,38.387778
156149511,-82.5153063,38.3865072
154757477,-82.360372,38.391473
154779171,-82.37425,38.406073
154802767,-82.334545,38.379916
156154170,-82.498022,38.389714
154826913,-82.425336,38.387774
154875889,-82.3324743,38.4097866
154817052,-82.367657,38.410805
156145128,-82.5165118,38.3843473
198054218,-82.5313625,38.4123695
198133912,-82.518879,38.413831
198102830,-82.452775,38.428993
198077748,-82.505821,38.413532
154867847,-82.346721,38.407358
198054690,-82.507162,38.414101
154817374,-82.35853,38.405564
156145094,-82.5108436,38.3878054
154777199,-82.450148,38.388883
198158490,-82.475976,38.42212
198158469,-82.480214,38.422045
198158467,-82.481314,38.421898
154776317,-82.35193,38.410778
198129501,-82.470022,38.429011
198054788,-82.514663,38.412633
198054385,-82.504004,38.413696
156171653,-82.518347,38.394194
156123681,-82.515151,38.390457
154817357,-82.358644,38.403525
198123485,-82.490658,38.431711
154839766,-82.370055,38.405656
198123473,-82.491565,38.43198
198074269,-82.522128,38.411321
156116263,-82.485349,38.384146
198120132,-82.525676,38.408262
198120084,-82.503716,38.415343
198069884,-82.43173,38.436846
198063944,-82.518589,38.408982
154854876,-82.36401,38.40773
154776321,-82.364825,38.411126
198123460,-82.489815,38.43337
198074291,-82.521187,38.427214
198074285,-82.51557,38.427123
154861694,-82.370017,38.407254
198071323,-82.475891,38.427239
946852840,-82.3655178,38.4062023
154805697,-82.353264,38.429668
154756444,-82.3628959,38.4328886
154875394,-82.349638,38.408371
154850813,-82.369643,38.40413
198109898,-82.516215,38.411627
156154160,-82.498579,38.390972
198134351,-82.451822,38.426118
156153072,-82.5320367,38.3866693
154847469,-82.3505408,38.4076189
198108384,-82.473181,38.427076
154847946,-82.3506,38.409489
154847944,-82.349386,38.41049
154847891,-82.360777,38.40556
198180661,-82.513985,38.421084
198180655,-82.533635,38.407158
198156038,-82.518524,38.411119
198131423,-82.510843,38.413172
198156031,-82.474128,38.425065
198057174,-82.477645,38.424262
154846786,-82.356952,38.4116
198101399,-82.458825,38.426029
156176792,-82.5182921,38.3868039
198057171,-82.477359,38.423324
198056196,-82.462742,38.427103
198057041,-82.488889,38.421074
198130727,-82.466396,38.42525
154773268,-82.352359,38.41322
154846846,-82.364832,38.407956
198105861,-82.468316,38.430358
198129989,-82.50375,38.415012
198055083,-82.517374,38.409608
198104144,-82.511322,38.41356
198054958,-82.517551,38.411208
156123683,-82.514863,38.390486
198116213,-82.511538,38.41723
156122192,-82.513689,38.388438
154791820,-82.345562,38.407636
154791818,-82.346025,38.409387
154832979,-82.3478166,38.4136642
198093243,-82.513457,38.414273
154816582,-82.370203,38.406631
156144328,-82.5080752,38.3875755
154840895,-82.35947,38.385063
198120987,-82.456934,38.431262
156164043,-82.51695,38.392578
198071325,-82.475629,38.427547
198120026,-82.482637,38.422529
1556219240,-82.3460339,38.4117059
154834079,-82.3659067,38.4059063
198068640,-82.529863,38.413938
154773320,-82.348992,38.413391
198100218,-82.513518,38.432921
154791255,-82.346705,38.407799
154839618,-82.365019,38.433516
154839616,-82.366387,38.433201
154765828,-82.359475,38.406014
154837325,-82.360294,38.392561
198169942,-82.452553,38.427472
154787651,-82.388607,38.384617
154836791,-82.354272,38.426276
198095875,-82.447543,38.428187
198055410,-82.382847,38.435969
198141233,-82.512097,38.426608
198091983,-82.504034,38.415162
3388797952,-82.5321823,38.3926955
154830729,-82.3779721,38.3925474
154828113,-82.3769466,38.3919254
198141034,-82.459392,38.429731
431528503,-82.4905653,38.4232977
431528501,-82.4901903,38.4230299
198152246,-82.480067,38.421276
198165128,-82.451448,38.432065
198066756,-82.44522,38.430034
198066754,-82.447187,38.428401
198139066,-82.512247,38.414853
154830793,-82.351978,38.404097
154830791,-82.352129,38.404446
154830776,-82.352402,38.405843
154828126,-82.3751783,38.3904313
154875964,-82.3504274,38.4111825
198133888,-82.52582,38.407098
154752696,-82.346039,38.412648
198104147,-82.509895,38.41379
198054961,-82.517675,38.410399
156136118,-82.5173208,38.3860554
198054774,-82.464404,38.426397
154832249,-82.34786,38.429238
198090515,-82.471433,38.425673
198111847,-82.475484,38.424199
198099534,-82.526064,38.4093
156155678,-82.514863,38.389087
198086246,-82.46537,38.436223
198086233,-82.464912,38.434054
198061638,-82.522553,38.429124
198085970,-82.517943,38.421663
154875943,-82.344981,38.409342
154752694,-82.345925,38.413363
198110170,-82.508293,38.412099
154825883,-82.361109,38.405436
198109293,-82.512556,38.412587
154874754,-82.346416,38.399092
198132555,-82.436078,38.431531
198120130,-82.523174,38.408959
154822247,-82.4285488,38.3627119
154773071,-82.362773,38.411617
198105862,-82.469118,38.430475
198056532,-82.516986,38.408896
198080093,-82.510439,38.428477
198080044,-82.470798,38.425081
154770068,-82.350262,38.414209
198055054,-82.518076,38.409674
198125009,-82.461377,38.428409
154770502,-82.429632,38.387499
154768205,-82.346353,38.416058
154816739,-82.368341,38.408576
154816736,-82.367728,38.408774
198085534,-82.468914,38.436108
156149509,-82.5144794,38.3865976
198142685,-82.522773,38.408203
198130282,-82.38263,38.43597
198129326,-82.480302,38.435993
198130274,-82.382343,38.438196
198080089,-82.510377,38.429593
198080057,-82.470207,38.42686
154821840,-82.393247,38.386216
154845438,-82.349572,38.40067
154818411,-82.368001,38.408376
198074942,-82.470871,38.425224
154816756,-82.370406,38.408881
198112550,-82.461774,38.425971
198074292,-82.450753,38.428303
198071468,-82.45508,38.428885
198071465,-82.532112,38.406752
156145019,-82.5160105,38.394493
156145018,-82.515905,38.3949789
198102856,-82.459406,38.430959
198120097,-82.514692,38.412075
154850410,-82.3895321,38.4343751
198121795,-82.465681,38.425418
198121792,-82.465362,38.423839
198072580,-82.475378,38.431428
198072572,-82.46179,38.427692
198134022,-82.467678,38.426935
154813397,-82.365145,38.404002
198071463,-82.531233,38.406964
198170371,-82.436228,38.436172
154837355,-82.362138,38.386622
154765787,-82.363703,38.40925
198096449,-82.503843,38.415258
198120086,-82.503914,38.415222
154775847,-82.346866,38.41345
154837256,-82.366006,38.407229
154873830,-82.366852,38.407549
154812047,-82.361573,38.405131
198102886,-82.45412,38.432045
154807223,-82.3436063,38.412137
198114925,-82.519777,38.428518
198065252,-82.459886,38.42729
154812065,-82.362534,38.405983
198054811,-82.453985,38.428082
198112577,-82.452641,38.427892
198161737,-82.520427,38.428532
154830773,-82.3749984,38.3935072
198139061,-82.510933,38.415072
154772086,-82.438477,38.38653
198165368,-82.508016,38.423993
154845442,-82.350431,38.405156
198129017,-82.492633,38.454895
198080040,-82.509103,38.413483
154800277,-82.3446579,38.4112111
154796008,-82.3452609,38.4069624
154800272,-82.3433901,38.4114055
154802030,-82.342379,38.412528
156129827,-82.5154511,38.3949975
198109794,-82.494885,38.436028
154776817,-82.377633,38.390014
154800646,-82.361571,38.406692
154800644,-82.362468,38.406681
154837255,-82.366072,38.407474
198108421,-82.476477,38.427318
154812422,-82.3814542,38.3929046
198132582,-82.4493973,38.4282426
198081164,-82.474117,38.423926
946852890,-82.3654698,38.4059957
198130045,-82.431803,38.435916
154846311,-82.35784,38.386582
198130021,-82.431214,38.433397
154815585,-82.349795,38.406953
198154509,-82.4965285,38.4214646
198056137,-82.466968,38.424609
154773143,-82.348672,38.409225
198092833,-82.500285,38.414638
198054974,-82.484086,38.422003
198054730,-82.464767,38.426333
154759593,-82.353552,38.427216
198153914,-82.4872568,38.4178723
198054969,-82.405958,38.442059
156123688,-82.514844,38.390608
154814142,-82.457048,38.3826303
154837240,-82.364388,38.409343
198080754,-82.503794,38.413388
198153942,-82.4893926,38.4220007
198100224,-82.514214,38.432059
154791155,-82.3811057,38.3967902
154791138,-82.3806171,38.3950318
154777182,-82.450447,38.387981
154832521,-82.357091,38.408374
198054683,-82.506632,38.412531
156110452,-82.5114345,38.3883279
154758179,-82.361246,38.393523
154770052,-82.347853,38.414052
198120044,-82.495835,38.420537
198120125,-82.52086,38.409617
198059529,-82.519388,38.410256
154849628,-82.352805,38.409096
198102357,-82.50532,38.416955
154781523,-82.361851,38.402964
198163565,-82.47067,38.426307
2223753701,-82.4892689,38.4220279
2223753699,-82.4897744,38.4219148
2223753691,-82.4891093,38.4215937
198089631,-82.439195,38.430694
154867276,-82.4601972,38.382191
3388797586,-82.5324475,38.3857588
198054781,-82.463994,38.425918
154854891,-82.35824,38.40722
154756478,-82.368234,38.431921
154756471,-82.3676868,38.4307277
198096486,-82.497182,38.415847
198100121,-82.52058,38.413444
154804174,-82.370808,38.410346
154804172,-82.370749,38.410134
154791243,-82.345708,38.408224
198123971,-82.379591,38.436341
198055408,-82.382802,38.436397
198148269,-82.53372,38.410281
198148262,-82.455192,38.426909
198122702,-82.479158,38.421382
198133920,-82.465472,38.435013
198133933,-82.466966,38.435138
154807225,-82.346447,38.411637
198133624,-82.515702,38.428931
198095212,-82.452718,38.432546
198065249,-82.46049,38.428729
198132542,-82.470816,38.429937
1556219239,-82.3459269,38.4117229
198094416,-82.533791,38.457903
154802254,-82.362585,38.404588
154762480,-82.362052,38.406684
198169070,-82.475262,38.425685
154786962,-82.368667,38.406699
154786935,-82.370308,38.408305
154786868,-82.370846,38.408552
154847939,-82.444376,38.38108
198168458,-82.505887,38.413708
198143851,-82.502238,38.414686
154835604,-82.468649,38.386444
154847855,-82.367757,38.407235
198115306,-82.469609,38.43676
198099526,-82.528004,38.408864
154789997,-82.368256,38.405264
154789992,-82.36765,38.40562
154789991,-82.368157,38.405712
198072445,-82.470972,38.435832
154853503,-82.34796,38.391029
198137228,-82.514637,38.426703
198131420,-82.510406,38.413265
154798481,-82.3803092,38.3937726
431531062,-82.4578624,38.4342299
156138465,-82.512009,38.3885769
154853386,-82.355219,38.410182
198100214,-82.515155,38.432981
198154528,-82.5114838,38.4170431
198067344,-82.51502,38.411985
198116229,-82.5038112,38.4199307
154777194,-82.449988,38.388803
198131415,-82.455535,38.433919
198072641,-82.524908,38.429418
154770490,-82.428077,38.388031
154770515,-82.432627,38.387693
154758191,-82.360882,38.394368
198112615,-82.4520899,38.427985
154853440,-82.349309,38.400298
198161743,-82.520486,38.427501
198109448,-82.5220854,38.4140864
198072581,-82.474078,38.433395
198072573,-82.461851,38.427941
198121727,-82.442981,38.432181
156122193,-82.513674,38.388517
154813443,-82.431168,38.382132
198176718,-82.474354,38.424903
154868238,-82.362568,38.431697
154757380,-82.361725,38.388395
154818409,-82.368043,38.407986
154807090,-82.453044,38.389927
198116552,-82.504428,38.421998
198067346,-82.514907,38.411492
198141067,-82.522681,38.429383
154817334,-82.360924,38.404363
156145166,-82.5315036,38.3763796
198161819,-82.501865,38.417931
198072643,-82.527185,38.430876
198072616,-82.532679,38.417578
154779190,-82.373255,38.402365
198087460,-82.49731,38.415499
198087458,-82.49736,38.415787
198100123,-82.521266,38.413471
156147448,-82.549077,38.3929654
198116546,-82.505183,38.432082
198109418,-82.522919,38.409032
198134235,-82.510663,38.414159
154786988,-82.369256,38.404555
198086235,-82.465221,38.435039
198091396,-82.446321,38.434442
154833080,-82.3007333,38.4226138
154826942,-82.427634,38.388104
198184499,-82.52181,38.408088
198080041,-82.508939,38.4132
198184217,-82.45317,38.4304014
154796006,-82.348705,38.4072792
154776833,-82.3799827,38.3890686
154776286,-82.363281,38.429908
154776276,-82.363695,38.429093
154775213,-82.367937,38.410388
154775212,-82.367868,38.40987
154759601,-82.354881,38.427314
198153921,-82.4894786,38.4219881
198058610,-82.515824,38.428204
198137601,-82.511565,38.41733
198068604,-82.501791,38.41888
154834032,-82.3529894,38.4095264
198080742,-82.503884,38.414716
198056140,-82.466773,38.424468
154833929,-82.3008377,38.4228312
154775401,-82.355681,38.428091
198163562,-82.472275,38.435626
2223753697,-82.4892703,38.4216027
154807082,-82.454351,38.389065
154772120,-82.357141,38.41158
154772109,-82.355743,38.411169
198153967,-82.5037792,38.4194552
198153982,-82.511439,38.4168498
198120020,-82.478023,38.423203
198055480,-82.535661,38.408084
198055469,-82.533129,38.408227
154770671,-82.357153,38.392486
154770649,-82.359602,38.393653
198146456,-82.509012,38.425207
154770516,-82.429984,38.388429
154825859,-82.363437,38.433872
198066508,-82.472237,38.423646
154758209,-82.360208,38.394722
198066506,-82.472059,38.423439
154758207,-82.360365,38.39511
154853526,-82.355285,38.409591
198077916,-82.465155,38.434827
198102507,-82.513453,38.42499
154770634,-82.360756,38.394595
198141060,-82.521964,38.428747
154768236,-82.350251,38.414518
154825271,-82.352617,38.405838
198055058,-82.518231,38.409316
198148842,-82.484968,38.440006
154826949,-82.427822,38.38829
198125775,-82.461617,38.425255
154826720,-82.4302607,38.3605609
154789846,-82.3792041,38.3959344
154776880,-82.289907,38.417235
154770701,-82.358514,38.391186
946852866,-82.3480891,38.413676
154757666,-82.361759,38.397891
154825287,-82.353114,38.407661
154813805,-82.347617,38.408886
198129399,-82.476653,38.432608
154760932,-82.359648,38.402843
154756427,-82.349747,38.403127
198120018,-82.475664,38.423641
198120024,-82.480395,38.422823
154774854,-82.450452,38.387075
154789822,-82.3771994,38.3980178
198092829,-82.500475,38.414625
156123878,-82.510814,38.3870537
198088749,-82.465573,38.42619
198084806,-82.509877,38.411651
198158482,-82.477774,38.422393
154764201,-82.363835,38.408876
154764196,-82.36428,38.408923
154762727,-82.36424,38.403156
198147843,-82.457183,38.429175
198055609,-82.504545,38.425324
154765796,-82.364125,38.408563
198055613,-82.505002,38.426773
198055618,-82.503828,38.424802
156136120,-82.5170249,38.3864464
198177891,-82.480073,38.421023
198141052,-82.457277,38.429542
198096458,-82.502529,38.415085
198059537,-82.519436,38.408817
154791268,-82.34593,38.408999
198120685,-82.471143,38.430829
198071469,-82.454975,38.428325
154756446,-82.361604,38.433181
198086191,-82.456841,38.429615
198061643,-82.517009,38.410631
154762483,-82.362046,38.406009
154776316,-82.351166,38.411555
198162103,-82.514336,38.420596
156136142,-82.5047199,38.3856014
154834036,-82.3535541,38.4094575
154757174,-82.359176,38.405363
156140467,-82.48827,38.394381
198074315,-82.456765,38.427958
154760938,-82.360112,38.402004
154798506,-82.381168,38.3940705
154757783,-82.362303,38.394753
198059834,-82.493425,38.421838
198102805,-82.455219,38.432811
154757176,-82.359675,38.405219
154774874,-82.451053,38.388597
198080065,-82.468747,38.427089
154843476,-82.37928,38.391672
198120063,-82.502925,38.418467
198113796,-82.456908,38.42631
198163525,-82.520513,38.408486
198061627,-82.522145,38.429581
198097577,-82.480771,38.422774
154798471,-82.3803061,38.3947493
198120669,-82.472195,38.432395
156155753,-82.518566,38.393202
154756438,-82.362513,38.431812
198086232,-82.464794,38.433676
154791816,-82.346162,38.409944
198067231,-82.503202,38.416698
198129971,-82.515097,38.41434
198109901,-82.516206,38.411815
154850814,-82.36848,38.404936
154875387,-82.348758,38.410092
2881167051,-82.4912962,38.4229851
154845443,-82.350161,38.404114
198113794,-82.456993,38.426534
198102858,-82.459083,38.4313197
154775405,-82.35592,38.427655
154752730,-82.34837,38.412811
198130003,-82.4736,38.425149
154798519,-82.3804447,38.394958
198091400,-82.446155,38.433788
198095213,-82.452359,38.432958
1351010424,-82.5345003,38.3958817
198145715,-82.511334,38.416447
154757166,-82.358578,38.405433
154762722,-82.364873,38.402969
154847847,-82.366415,38.408758
154770685,-82.357264,38.391769
198074319,-82.458045,38.427678
198080097,-82.510396,38.427421
198074317,-82.457435,38.427809
1432026332,-82.5470475,38.3921945
198114960,-82.520759,38.434769
198133659,-82.512801,38.428135