CALL TYPE,Priority,DISPATCH,Individual Scene Time,,ADDRESS,CITY,STATE,COUNTRY
SUS. PERSON,6,7/25/2011 03:30AM,0.000,,417 W 21ST ST,HUNTINGTON,WEST VIRGINIA,UNITED STATES
MVA Inj.,4,7/25/2011 07:27AM,0.000,,4500 RT 60,HUNTINGTON,WEST VIRGINIA,UNITED STATES
ALARM,6,7/25/2011 08:02AM,16.400,,2156 KENNON LN,HUNTINGTON,WEST VIRGINIA,UNITED STATES
SUS. PERSON,6,7/25/2011 11:35AM,13.900,,1400 RT 60,HUNTINGTON,WEST VIRGINIA,UNITED STATES
OTHER POLICE,3,7/25/2011 12:52PM,2.717,,720 W 15TH ST,HUNTINGTON,WEST VIRGINIA,UNITED STATES
VIN VERIFICATION,4,7/25/2011 12:55PM,0.000,,519 W 27TH ST,HUNTINGTON,WEST VIRGINIA,UNITED STATES
SUS. PERSON,6,7/25/2011 01:23PM,0.000,,2700 W ORCHARD AVE,HUNTINGTON,WEST VIRGINIA,UNITED STATES
KEEP CHECK,3,7/25/2011 06:36PM,0.000,,61 PULLMAN SQU,HUNTINGTON,WEST VIRGINIA,UNITED STATES
PROWLER,1,7/25/2011 10:00PM,2.750,,700 W 10TH ST,HUNTINGTON,WEST VIRGINIA,UNITED STATES
CHECK AREA,3,7/26/2011 02:09AM,12.817,,523 W 8TH ST,HUNTINGTON,WEST VIRGINIA,UNITED STATES
CHECK AREA,3,7/26/2011 07:27AM,0.000,,4 I64,HUNTINGTON,WEST VIRGINIA,UNITED STATES
CHECK WELFARE,2,7/26/2011 01:09PM,85.717,,306 W 22ND ST,HUNTINGTON,WEST VIRGINIA,UNITED STATES
LARCENY REPORT,4,7/26/2011 10:08PM,0.000,,819 W 3RD ST,HUNTINGTON,WEST VIRGINIA,UNITED STATES
MVA Entrap.,4,7/27/2011 06:55AM,49.583,,8 I64,HUNTINGTON,WEST VIRGINIA,UNITED STATES
LARCENY REPORT,4,7/27/2011 10:09AM,0.000,,61 PULLMAN SQU,HUNTINGTON,WEST VIRGINIA,UNITED STATES
Suicide,3,7/27/2011 01:59PM,44.750,,819 W 3RD ST,HUNTINGTON,WEST VIRGINIA,UNITED STATES
STRANDED MOTORIST,3,7/27/2011 02:49PM,0.000,,3100 RT 60,HUNTINGTON,WEST VIRGINIA,UNITED STATES
ASSAULT,2,7/27/2011 02:49PM,1.117,,1450 AD LEWIS AVE,HUNTINGTON,WEST VIRGINIA,UNITED STATES
DOMESTIC,2,7/27/2011 03:03PM,4.900,,510 W 23RD ST,HUNTINGTON,WEST VIRGINIA,UNITED STATES
ALARM,6,7/27/2011 05:20PM,9.183,,820 W VIRGINIA AVE,HUNTINGTON,WEST VIRGINIA,UNITED STATES
FOUND PROPERTY,4,7/27/2011 08:56PM,36.967,,819 W 28TH ST,HUNTINGTON,WEST VIRGINIA,UNITED STATES
SUS. PERSON,6,7/28/2011 01:21AM,1.567,,1411 RT 60,HUNTINGTON,WEST VIRGINIA,UNITED STATES
SUS. PERSON,6,7/28/2011 02:33AM,18.283,,1419 RT 60,HUNTINGTON,WEST VIRGINIA,UNITED STATES
BURGLARY,4,7/28/2011 09:01AM,0.000,,2723 W ORCHARD AVE,HUNTINGTON,WEST VIRGINIA,UNITED STATES
ALARM,6,7/28/2011 11:59AM,3.533,,114 W NORTH BLV,HUNTINGTON,WEST VIRGINIA,UNITED STATES
CHECK AREA,3,7/28/2011 04:12PM,0.000,,2719 W ORCHARD AVE,HUNTINGTON,WEST VIRGINIA,UNITED STATES
MVA Inj.,4,7/28/2011 05:44PM,75.133,,12 I64,HUNTINGTON,WEST VIRGINIA,UNITED STATES
MVA,4,7/28/2011 05:50PM,38.483,,3100 RT 60,HUNTINGTON,WEST VIRGINIA,UNITED STATES
SHOPLIFTING,3,7/28/2011 06:37PM,24.250,,3110 RT 60,HUNTINGTON,WEST VIRGINIA,UNITED STATES
BURGLARY,4,7/28/2011 07:04PM,69.183,,2730 W ORCHARD AVE,HUNTINGTON,WEST VIRGINIA,UNITED STATES
SUS. PERSON,6,7/28/2011 08:39PM,0.000,,1 CIVIC CENTER PLZ,HUNTINGTON,WEST VIRGINIA,UNITED STATES
BURGLARY,4,7/28/2011 08:43PM,160.450,,826 W VIRGINIA AVE,HUNTINGTON,WEST VIRGINIA,UNITED STATES
ALARM,6,7/28/2011 11:04PM,3.033,,22 PULLMAN SQU,HUNTINGTON,WEST VIRGINIA,UNITED STATES
DOMESTIC,2,7/29/2011 08:23AM,0.000,,407 PARK CIR,HUNTINGTON,WEST VIRGINIA,UNITED STATES
MVA Inj.,4,7/29/2011 11:03AM,105.117,,1 STONECREST DR,HUNTINGTON,WEST VIRGINIA,UNITED STATES
PRISONER TRANSPORT,4,7/29/2011 11:08AM,0.000,,1 OHANLON PL,HUNTINGTON,WEST VIRGINIA,UNITED STATES
DOMESTIC,2,7/29/2011 12:38PM,0.000,,612 W 23RD ST,HUNTINGTON,WEST VIRGINIA,UNITED STATES
CHECK AREA,3,7/29/2011 02:00PM,0.000,,8 I64,HUNTINGTON,WEST VIRGINIA,UNITED STATES
Suicide,3,7/29/2011 03:34PM,8.100,,612 W 23RD ST,HUNTINGTON,WEST VIRGINIA,UNITED STATES
ASSAULT,2,7/29/2011 04:01PM,6.033,,830 W VIRGINIA AVE,HUNTINGTON,WEST VIRGINIA,UNITED STATES
OTHER POLICE,3,7/29/2011 05:04PM,81.400,,614 W 10TH ST,HUNTINGTON,WEST VIRGINIA,UNITED STATES
LARCENY REPORT,4,7/29/2011 07:30PM,0.000,,1360 HARRIS RIVERFRONT PARK,HUNTINGTON,WEST VIRGINIA,UNITED STATES
LARCENY REPORT,4,7/29/2011 09:19PM,19.183,,819 W 3RD ST,HUNTINGTON,WEST VIRGINIA,UNITED STATES
SHOPLIFTING,3,7/29/2011 10:09PM,17.617,,3110 RT 60,HUNTINGTON,WEST VIRGINIA,UNITED STATES
DESTRUCTION PROP.,6,7/29/2011 10:32PM,40.417,,612 W 23RD ST,HUNTINGTON,WEST VIRGINIA,UNITED STATES
SUS. PERSON,6,7/30/2011 03:42AM,0.000,,1413 RT 60,HUNTINGTON,WEST VIRGINIA,UNITED STATES
LARCENY REPORT,4,7/30/2011 04:31AM,39.283,,2746 W ORCHARD AVE,HUNTINGTON,WEST VIRGINIA,UNITED STATES
TRAFFIC STOP,4,7/30/2011 09:04AM,0.000,,13 I64,HUNTINGTON,WEST VIRGINIA,UNITED STATES
CHECK AREA,3,7/30/2011 09:15AM,10.050,,2750 W ORCHARD AVE,HUNTINGTON,WEST VIRGINIA,UNITED STATES
FOUND PROPERTY,4,7/30/2011 02:12PM,0.917,,1360 HARRIS RIVERFRONT PARK,HUNTINGTON,WEST VIRGINIA,UNITED STATES
CHECK AREA,3,7/30/2011 04:19PM,0.000,,2748 W ORCHARD AVE,HUNTINGTON,WEST VIRGINIA,UNITED STATES
KEEP CHECK,3,7/30/2011 05:26PM,0.000,,2748 W ORCHARD AVE,HUNTINGTON,WEST VIRGINIA,UNITED STATES
TRAFFIC STOP,4,7/30/2011 06:00PM,8.917,,607 W 7TH ST,HUNTINGTON,WEST VIRGINIA,UNITED STATES
DOMESTIC,2,7/30/2011 08:26PM,0.000,,710 W 4TH ST,HUNTINGTON,WEST VIRGINIA,UNITED STATES
MISSING PERSON,4,7/30/2011 10:10PM,0.000,,64 W 6TH AVE,HUNTINGTON,WEST VIRGINIA,UNITED STATES
DISTURBANCE,1,7/31/2011 12:26AM,72.850,,2 WASHINGTON SQU,HUNTINGTON,WEST VIRGINIA,UNITED STATES
DISTURBANCE,1,7/31/2011 02:08AM,29.967,,3090 16TH STREET RD,HUNTINGTON,WEST VIRGINIA,UNITED STATES
BURGLARY,4,7/31/2011 03:49PM,0.000,,1922 W VIRGINIA AVE,HUNTINGTON,WEST VIRGINIA,UNITED STATES
FIGHT,1,7/31/2011 04:30PM,20.567,,626 W 5TH ST,HUNTINGTON,WEST VIRGINIA,UNITED STATES
MISSING PERSON,4,7/31/2011 05:05PM,0.000,,64 W 6TH AVE,HUNTINGTON,WEST VIRGINIA,UNITED STATES
TRAFFIC STOP,4,7/31/2011 06:05PM,6.800,,3511 RT 60,HUNTINGTON,WEST VIRGINIA,UNITED STATES
